{
    "Bots": {
        "Popo": {
            "Race": "Zerg",
            "Type": "Python",
            "RootPath": "./",
            "FileName": "run.py",
            "Args": "-O",
            "Debug": true,
            "SurrenderPhrase": "(pineapple)"
        }
    }
}
